L10.4_d_Data.csv

#Digilent WaveForms Oscilloscope Acquisition
#Device Name: DiscoveryStudio
#Serial Number: SN:210384AEE5D2
#Date Time: 2025-11-18 15:33:17.923
#Sample rate: 1600Hz
#Samples: 16384
#Trigger: Source: Wavegen C1 Condition: Rising
#Channel 1: Range: 200 mV/div Offset: 1 V Sample Mode: Average
#Channel 2: Range: 1 V/div Offset: 0 V Sample Mode: Average
#Wavegen Channel 1: Running
#Mode: Simple
#Type: DC
#Offset: 2 V

Time (s),Channel 1 (V),Channel 2 (V)
-0.1200000000000001,-1.428751843416273,1.884622538085631
-0.1193749999999998,-1.36299852994736,1.880951285456334
-0.1187500000000004,-1.430080193183261,1.880951285456334
-0.118125,-1.371632803433177,1.884622538085631
-0.1174999999999997,-1.41912130760517,1.884622538085631
-0.1168750000000003,-1.392554312264195,1.884622538085631
-0.11625,-1.39786771133239,1.880951285456334
-0.1156249999999996,-1.419121307605131,1.884622538085631
-0.1150000000000002,-1.375949940176086,1.884622538085631
-0.1143749999999999,-1.432072717833895,1.884622538085631
-0.1137499999999996,-1.362002267622137,1.880951285456334
-0.1131250000000001,-1.431740630392133,1.880951285456334
-0.1124999999999998,-1.375285765292561,1.880951285456334
-0.1118750000000004,-1.415468345745749,1.880951285456334
-0.1112500000000001,-1.400524410866487,1.880951285456334
-0.1106249999999998,-1.393882662031244,1.880951285456334
-0.1100000000000003,-1.422774269464528,1.884622538085627
-0.109375,-1.371964890874939,1.880951285456334
-0.1087499999999997,-1.433401067600879,1.884622538085631
-0.1081250000000002,-1.362002267622074,1.884622538085631
-0.1074999999999999,-1.429416018299797,1.884622538085631
-0.1068749999999996,-1.381263339244307,1.884622538085627
-0.1062500000000002,-1.410487034119353,1.880951285456334
-0.1056249999999999,-1.406169897376444,1.884622538085631
-0.1050000000000004,-1.38956552528835,1.880951285456337
-0.1043750000000001,-1.424766794115127,1.884622538085631
-0.1037499999999998,-1.370304453666128,1.884622538085631
-0.1031250000000004,-1.429416018299744,1.884622538085631
-0.1025,-1.366651491806744,1.880951285456334
-0.1018749999999997,-1.4267593187657,1.880951285456334
-0.1012500000000003,-1.386576738312475,1.884622538085631
-0.100625,-1.40849450946878,1.884622538085631
-0.09999999999999964,-1.408494509468762,1.884622538085631
-0.09937500000000021,-1.389565525288335,1.884622538085631
-0.09874999999999989,-1.425430968998651,1.884622538085631
-0.09812499999999957,-1.373957415525562,1.880951285456334
-0.09750000000000014,-1.428419755974511,1.880951285456334
-0.09687499999999982,-1.370304453666128,1.884622538085631
-0.09625000000000039,-1.426427231323887,1.884622538085631
-0.09562500000000007,-1.389897612730097,1.884622538085631
-0.09499999999999975,-1.407830334585255,1.884622538085631
-0.09437500000000032,-1.408162422027017,1.880951285456337
-0.09375,-1.391558049938908,1.884622538085631
-0.09312499999999968,-1.424434706673319,1.884622538085631
-0.09250000000000025,-1.373957415525513,1.884622538085631
-0.09187499999999993,-1.4267593187657,1.884622538085631
-0.09124999999999961,-1.372296978316751,1.884622538085631
-0.09062500000000018,-1.4267593187657,1.884622538085631
-0.08999999999999986,-1.39022970017186,1.884622538085631
-0.08937500000000043,-1.409822859235811,1.884622538085631
-0.08875000000000011,-1.407830334585255,1.880951285456334
-0.08812499999999979,-1.392222224822433,1.884622538085631
-0.08750000000000036,-1.426759318765669,1.884622538085631
-0.08687500000000004,-1.371964890874939,1.884622538085631
-0.08624999999999972,-1.428419755974511,1.884622538085631
-0.08562500000000028,-1.370968628549653,1.880951285456334
-0.08499999999999996,-1.427755581090987,1.884622538085631
-0.08437499999999964,-1.388901350404831,1.884622538085631
-0.08375000000000021,-1.411151209002877,1.884622538085631
-0.08312499999999989,-1.408826596910542,1.884622538085631
-0.08249999999999957,-1.390561787613658,1.884622538085631
-0.08187500000000014,-1.42974810574156,1.884622538085631
-0.08124999999999982,-1.368644016457317,1.884622538085631
-0.08062500000000039,-1.432072717833837,1.884622538085631
-0.08000000000000007,-1.371964890874939,1.884622538085631
-0.07937499999999975,-1.42974810574156,1.884622538085631
-0.07875000000000032,-1.388901350404848,1.884622538085631
-0.078125,-1.409490771794066,1.884622538085631
-0.07749999999999968,-1.412147471328141,1.880951285456337
-0.07687500000000025,-1.387573000637762,1.884622538085631
-0.07624999999999993,-1.431408542950371,1.884622538085631
-0.07562499999999961,-1.365987316923283,1.880951285456334
-0.07500000000000018,-1.434729417367993,1.880951285456334
-0.07437499999999986,-1.372296978316701,1.884622538085631
-0.07375000000000043,-1.428751843416222,1.884622538085631
-0.07312500000000011,-1.393882662031244,1.880951285456334
-0.07249999999999979,-1.406834072259969,1.880951285456334
-0.07187500000000036,-1.416796695512825,1.884622538085627
-0.07125000000000004,-1.381595426686043,1.880951285456334
-0.07062499999999972,-1.433733155042706,1.880951285456334
-0.07000000000000028,-1.362666442505598,1.880951285456334
-0.06937499999999996,-1.437054029460328,1.880951285456334
-0.06874999999999964,-1.374621590409083,1.884622538085631
-0.06812500000000021,-1.425098881556889,1.884622538085631
-0.06749999999999989,-1.396871449007103,1.884622538085631
-0.06687499999999957,-1.402849022958841,1.884622538085631
-0.06625000000000014,-1.422774269464554,1.884622538085631
-0.06562499999999982,-1.37661411505961,1.880951285456334
-0.06500000000000039,-1.437718204343797,1.884622538085627
-0.06437500000000007,-1.363994792272647,1.884622538085631
-0.06374999999999975,-1.43738611690209,1.884622538085631
-0.06312500000000032,-1.37927081459376,1.884622538085631
-0.0625,-1.421778007139267,1.884622538085631
-0.06187499999999968,-1.403513197842341,1.884622538085627
-0.06125000000000025,-1.396871449007103,1.880951285456334
-0.06062499999999993,-1.427755581090987,1.884622538085631
-0.05999999999999961,-1.373293240642047,1.884622538085631
-0.05937500000000018,-1.438382379227377,1.884622538085631
-0.05874999999999986,-1.364991054597933,1.884622538085631
-0.05812500000000043,-1.435725679693215,1.884622538085631
-0.05750000000000011,-1.385912563428951,1.884622538085631
-0.05687499999999979,-1.415800433187548,1.884622538085631
-0.05625000000000036,-1.409822859235834,1.884622538085631
-0.05562500000000004,-1.391225962497146,1.884622538085631
-0.05499999999999972,-1.431076455508608,1.884622538085631
-0.05437500000000028,-1.371300715991415,1.884622538085631
-0.05374999999999996,-1.435725679693279,1.884622538085631
-0.05312499999999964,-1.367979841573852,1.884622538085631
-0.05250000000000021,-1.432072717833895,1.884622538085631
-0.05187499999999989,-1.391225962497146,1.884622538085631
-0.05124999999999957,-1.409822859235831,1.884622538085631
-0.05062500000000014,-1.412811646211688,1.884622538085631
-0.04999999999999982,-1.389897612730097,1.884622538085631
-0.04937500000000039,-1.431076455508571,1.884622538085631
-0.04875000000000007,-1.374953677850799,1.884622538085631
-0.04812499999999975,-1.432736892717419,1.884622538085631
-0.04750000000000032,-1.375285765292613,1.884622538085631
-0.046875,-1.428087668532749,1.884622538085631
-0.04624999999999968,-1.395543099240065,1.880951285456337
-0.04562500000000025,-1.407498247143493,1.884622538085631
-0.04499999999999993,-1.413475821095213,1.884622538085631
-0.04437499999999961,-1.393882662031275,1.884622538085631
-0.04375000000000018,-1.428751843416273,1.884622538085631
-0.04312499999999986,-1.377610377384896,1.884622538085631
-0.04250000000000043,-1.428087668532703,1.884622538085631
-0.04187500000000011,-1.377942464826659,1.880951285456334
-0.04124999999999979,-1.426095143882176,1.884622538085631
-0.04062500000000036,-1.396539361565368,1.884622538085631
-0.04000000000000004,-1.41148329644464,1.884622538085631
-0.03937499999999972,-1.410819121561115,1.884622538085631
-0.03875000000000028,-1.39487892435653,1.884622538085631
-0.03812499999999996,-1.426427231323938,1.884622538085631
-0.03749999999999964,-1.376282027617894,1.884622538085631
-0.03687500000000021,-1.4267593187657,1.884622538085631
-0.03624999999999989,-1.377610377384896,1.884622538085631
-0.03562499999999957,-1.428419755974479,1.884622538085627
-0.03500000000000014,-1.393550574589481,1.880951285456334
-0.03437499999999982,-1.413807908536975,1.884622538085631
-0.03375000000000039,-1.408494509468785,1.880951285456337
-0.03312500000000007,-1.395875186681817,1.880951285456334
-0.03249999999999975,-1.425763056440414,1.880951285456334
-0.03187500000000032,-1.374953677850845,1.880951285456334
-0.03125,-1.432404805275657,1.880951285456334
-0.03062499999999968,-1.375949940176135,1.880951285456337
-0.03000000000000025,-1.430080193183322,1.884622538085631
-0.02937499999999993,-1.39189013738067,1.880951285456334
-0.02874999999999961,-1.414139995978732,1.884622538085627
-0.02812500000000018,-1.408162422027018,1.880951285456334
-0.02749999999999986,-1.392886399705957,1.884622538085631
-0.02687500000000043,-1.430080193183288,1.880951285456337
-0.02625000000000011,-1.370968628549653,1.880951285456334
-0.02562499999999979,-1.435725679693279,1.880951285456334
-0.02500000000000036,-1.374953677850854,1.880951285456334
-0.02437500000000004,-1.432404805275657,1.880951285456334
-0.02374999999999972,-1.391558049938908,1.884622538085631
-0.02312500000000028,-1.412479558769926,1.884622538085631
-0.02249999999999996,-1.41314373365345,1.880951285456334
-0.02187499999999964,-1.387573000637803,1.880951285456337
-0.02125000000000021,-1.432736892717419,1.884622538085631
-0.02062499999999989,-1.367979841573793,1.884622538085631
-0.01999999999999957,-1.439710728994365,1.884622538085631
-0.01937500000000014,-1.373293240641988,1.884622538085631
-0.01874999999999982,-1.42974810574156,1.884622538085631
-0.01812500000000039,-1.391225962497181,1.880951285456337
-0.01750000000000007,-1.408162422027018,1.884622538085631
-0.01687499999999975,-1.41912130760517,1.880951285456334
-0.01625000000000032,-1.381927514127839,1.884622538085627
-0.015625,-1.43738611690209,1.884622538085631
-0.01499999999999968,-1.364326879714479,1.880951285456337
-0.01437500000000025,-1.441703253644999,1.884622538085631
-0.01374999999999993,-1.374621590409037,1.880951285456334
-0.01312499999999961,-1.428751843416245,1.884622538085627
-0.01250000000000018,-1.397203536448866,1.880951285456334
-0.01187499999999986,-1.403181110400585,1.880951285456334
-0.01125000000000043,-1.424434706673345,1.884622538085627
-0.01062500000000011,-1.375949940176086,1.880951285456334
-0.009999999999999787,-1.439046554110901,1.884622538085631
-0.009375000000000355,-1.360673917855096,1.880951285456337
-0.008750000000000036,-1.442035341086761,1.884622538085631
-0.008124999999999716,-1.378274552268421,1.880951285456334
-0.007500000000000284,-1.42377053178984,1.884622538085631
-0.006874999999999964,-1.403845285284109,1.884622538085631
-0.006249999999999645,-1.396871449007135,1.884622538085631
-0.005625000000000213,-1.431408542950371,1.884622538085631
-0.004999999999999893,-1.369640278782604,1.880951285456334
-0.004374999999999574,-1.442035341086687,1.884622538085627
-0.003750000000000142,-1.361006005296787,1.880951285456334
-0.003124999999999822,-1.441371166203236,1.884622538085631
-0.002500000000000391,-1.382591689011383,1.884622538085631
-0.001875000000000071,-1.417128782954597,1.884622538085631
-0.001249999999999751,-1.410154946677591,1.884622538085631
-0.0006250000000003197,-1.39056178761364,1.884622538085631
0,-1.437054029460328,1.884622538085631
0.0006250000000003197,-1.366319404365051,1.880951285456337
0.001249999999999751,-1.442035341086761,1.884622538085631
0.001875000000000071,-1.364991054597933,1.884622538085631
0.002500000000000391,-1.437054029460285,1.884622538085631
0.003124999999999822,-1.39022970017186,1.884622538085631
0.003750000000000142,-1.410819121561115,1.884622538085631
0.004374999999999574,-1.416132520629305,1.884622538085631
0.004999999999999893,-1.385912563428951,1.884622538085631
0.005625000000000213,-1.43738611690209,1.884622538085631
0.006249999999999645,-1.365987316923285,1.884622538085631
0.006874999999999964,-1.43738611690209,1.884622538085631
0.007500000000000284,-1.370636541107891,1.884622538085631
0.008124999999999716,-1.42974810574156,1.884622538085631
0.008750000000000036,-1.396871449007103,1.884622538085631
0.009375000000000355,-1.405837809934694,1.884622538085631
0.009999999999999787,-1.418789220163408,1.884622538085631
0.01062500000000011,-1.385912563428951,1.884622538085631
0.01125000000000043,-1.437054029460266,1.884622538085631
0.01187499999999986,-1.36897610389908,1.884622538085631
0.01250000000000018,-1.432404805275657,1.884622538085631
0.01312499999999961,-1.375617852734375,1.884622538085631
0.01374999999999993,-1.425098881556889,1.880951285456334
0.01437500000000025,-1.396871449007103,1.884622538085631
0.01499999999999968,-1.404841547609389,1.884622538085631
0.015625,-1.416464608071072,1.884622538085631
0.01625000000000032,-1.386576738312516,1.884622538085631
0.01687499999999975,-1.431740630392133,1.884622538085631
0.01750000000000007,-1.370968628549653,1.884622538085631
0.01812500000000039,-1.432404805275608,1.884622538085631
0.01874999999999982,-1.378274552268421,1.884622538085631
0.01937500000000014,-1.426095143882176,1.884622538085631
0.01999999999999957,-1.397535623890654,1.884622538085631
0.02062499999999989,-1.407830334585255,1.884622538085631
0.02125000000000021,-1.414804170862261,1.884622538085631
0.02187499999999964,-1.388237175521311,1.884622538085631
0.02249999999999996,-1.431076455508608,1.884622538085631
0.02312500000000028,-1.36897610389908,1.884622538085631
0.02374999999999972,-1.435393592251517,1.884622538085631
0.02437500000000004,-1.375617852734323,1.884622538085631
0.02500000000000036,-1.428087668532718,1.884622538085631
0.02562499999999979,-1.393550574589481,1.884622538085631
0.02625000000000011,-1.407830334585255,1.884622538085631
0.02687500000000043,-1.416796695512804,1.884622538085631
0.02749999999999986,-1.383587951336616,1.884622538085631
0.02812500000000018,-1.435393592251517,1.884622538085631
0.02874999999999961,-1.363330617389188,1.884622538085631
0.02937499999999993,-1.438714466669139,1.884622538085631
0.03000000000000025,-1.373293240641988,1.884622538085631
0.03062499999999968,-1.428087668532699,1.884622538085631
0.03125,-1.395875186681817,1.884622538085631
0.03187500000000032,-1.402516935517078,1.884622538085631
0.03249999999999975,-1.421778007139267,1.884622538085631
0.03312500000000007,-1.376282027617848,1.884622538085631
0.03375000000000039,-1.439710728994352,1.884622538085631
0.03437499999999982,-1.359677655529739,1.884622538085631
0.03500000000000014,-1.441039078761474,1.884622538085631
0.03562499999999957,-1.377942464826716,1.884622538085631
0.03624999999999989,-1.423106356906316,1.884622538085631
0.03687500000000021,-1.403513197842347,1.884622538085631
0.03749999999999964,-1.395543099240062,1.880951285456337
0.03812499999999996,-1.429416018299797,1.884622538085631
0.03875000000000028,-1.36897610389908,1.880951285456334
0.03937499999999972,-1.440042816436188,1.884622538085631
0.04000000000000004,-1.360673917855025,1.884622538085631
0.04062500000000036,-1.438382379227328,1.884622538085627
0.04124999999999979,-1.384584213661902,1.880951285456334
0.04187500000000011,-1.415800433187548,1.884622538085631
0.04250000000000043,-1.410154946677572,1.884622538085631
0.04312499999999986,-1.389897612730097,1.884622538085631
0.04375000000000018,-1.433401067600944,1.884622538085631
0.04437499999999961,-1.368644016457376,1.884622538085631
0.04499999999999993,-1.43738611690209,1.884622538085631
0.04562500000000025,-1.366319404364982,1.884622538085631
0.04624999999999968,-1.434065242484407,1.884622538085631
0.046875,-1.388901350404811,1.884622538085631
0.04750000000000032,-1.409822859235832,1.884622538085631
0.04812499999999975,-1.41314373365345,1.884622538085631
0.04875000000000007,-1.389897612730097,1.884622538085631
0.04937500000000039,-1.432736892717361,1.884622538085631
0.04999999999999982,-1.36897610389908,1.884622538085631
0.05062500000000014,-1.436721942018566,1.884622538085631
0.05124999999999957,-1.370636541107951,1.884622538085631
0.05187499999999989,-1.431408542950371,1.884622538085631
0.05250000000000021,-1.392554312264195,1.884622538085631
0.05312499999999964,-1.409490771794051,1.884622538085631
0.05374999999999996,-1.412479558769926,1.884622538085631
0.05437500000000028,-1.389565525288335,1.884622538085631
0.05499999999999972,-1.431740630392133,1.884622538085631
0.05562500000000004,-1.367979841573793,1.884622538085631
0.05625000000000036,-1.43406524248441,1.884622538085631
0.05687499999999979,-1.370636541107891,1.884622538085631
0.05750000000000011,-1.430412280625084,1.884622538085631
0.05812500000000043,-1.391890137380686,1.884622538085631
0.05874999999999986,-1.409158684352304,1.884622538085631
0.05937500000000018,-1.414139995978737,1.884622538085631
0.05999999999999961,-1.387573000637786,1.884622538085631
0.06062499999999993,-1.434729417367993,1.884622538085631
0.06125000000000025,-1.365655229481458,1.884622538085631
0.06187499999999968,-1.436057767134977,1.884622538085631
0.0625,-1.371300715991415,1.880951285456334
0.06312500000000032,-1.431076455508574,1.884622538085631
0.06374999999999975,-1.393218487147719,1.884622538085631
0.06437500000000007,-1.405837809934682,1.884622538085631
0.06500000000000039,-1.416796695512803,1.884622538085631
0.06562499999999982,-1.382259601569567,1.884622538085631
0.06625000000000014,-1.437054029460328,1.884622538085631
0.06687499999999957,-1.363662704830952,1.884622538085631
0.06749999999999989,-1.439710728994425,1.884622538085631
0.06812500000000021,-1.373293240641988,1.884622538085631
0.06874999999999964,-1.428087668532699,1.884622538085631
0.06937499999999996,-1.397203536448866,1.884622538085631
0.07000000000000028,-1.402516935517061,1.884622538085631
0.07062499999999972,-1.421113832255743,1.884622538085631
0.07125000000000004,-1.37661411505961,1.884622538085631
0.07187500000000036,-1.440374903877879,1.884622538085631
0.07249999999999979,-1.362666442505598,1.884622538085631
0.07312500000000011,-1.438382379227377,1.884622538085631
0.07375000000000043,-1.376946202501413,1.884622538085631
0.07437499999999986,-1.421778007139267,1.884622538085631
0.07500000000000018,-1.402849022958823,1.884622538085631
0.07562499999999961,-1.396871449007109,1.880951285456337
0.07624999999999993,-1.4267593187657,1.884622538085631
0.07687500000000025,-1.373957415525513,1.880951285456334
0.07749999999999968,-1.439710728994366,1.884622538085627
0.078125,-1.363662704830885,1.884622538085631
0.07875000000000032,-1.434729417367944,1.884622538085631
0.07937499999999975,-1.381595426686043,1.884622538085631
0.08000000000000007,-1.417460870396359,1.884622538085631
0.08062500000000039,-1.406501984818194,1.884622538085631
0.08124999999999982,-1.392222224822433,1.884622538085631
0.08187500000000014,-1.429416018299797,1.884622538085631
0.08249999999999957,-1.374289502967325,1.884622538085631
0.08312499999999989,-1.437054029460328,1.884622538085631
0.08375000000000021,-1.366319404364982,1.880951285456334
0.08437499999999964,-1.433733155042645,1.884622538085627
0.08499999999999996,-1.387905088079524,1.880951285456334
0.08562500000000028,-1.412811646211688,1.880951285456334
0.08624999999999972,-1.410487034119353,1.884622538085631
0.08687500000000004,-1.392554312264195,1.880951285456334
0.08750000000000036,-1.430412280625032,1.884622538085627
0.08812499999999979,-1.373293240641988,1.880951285456334
0.08875000000000011,-1.434729417367993,1.884622538085631
0.08937500000000043,-1.369972366224423,1.884622538085631
0.08999999999999986,-1.432072717833895,1.884622538085631
0.09062500000000018,-1.391225962497146,1.884622538085631
0.09124999999999961,-1.410487034119335,1.884622538085631
0.09187499999999993,-1.412147471328164,1.884622538085631
0.09250000000000025,-1.389897612730097,1.884622538085631
0.09312499999999968,-1.431076455508571,1.884622538085631
0.09375,-1.372961153200226,1.884622538085631
